module telegram-chat-bot

go 1.15

require (
	github.com/kelseyhightower/envconfig v1.4.0
	github.com/kr/text v0.2.0 // indirect
	github.com/labstack/echo-contrib v0.9.0
	github.com/labstack/echo/v4 v4.2.0
	github.com/magefile/mage v1.11.0 // indirect
	github.com/mattn/go-colorable v0.1.8 // indirect
	github.com/prometheus/client_golang v1.9.0 // indirect
	github.com/prometheus/common v0.17.0 // indirect
	github.com/prometheus/procfs v0.6.0 // indirect
	github.com/sirupsen/logrus v1.8.0
	github.com/stretchr/testify v1.7.0 // indirect
	github.com/tylerb/graceful v1.2.15
	golang.org/x/crypto v0.0.0-20210220033148-5ea612d1eb83 // indirect
	golang.org/x/net v0.0.0-20210220033124-5f55cee0dc0d // indirect
	golang.org/x/sys v0.0.0-20210220050731-9a76102bfb43 // indirect
	golang.org/x/text v0.3.5 // indirect
	golang.org/x/time v0.0.0-20210220033141-f8bda1e9f3ba // indirect
	golang.org/x/xerrors v0.0.0-20200804184101-5ec99f83aff1 // indirect
	google.golang.org/protobuf v1.25.0 // indirect
	gopkg.in/check.v1 v1.0.0-20201130134442-10cb98267c6c // indirect
	gopkg.in/yaml.v3 v3.0.0-20210107192922-496545a6307b // indirect
)
